[
 {
  "docstatus": 0,
  "doctype": "Workflow State",
  "icon": "question-sign",
  "modified": "2018-08-08 23:36:03.580887",
  "name": "Pending",
  "parent": null,
  "parentfield": null,
  "parenttype": null,
  "style": "",
  "workflow_state_name": "Pending"
 },
 {
  "docstatus": 0,
  "doctype": "Workflow State",
  "icon": "ok-sign",
  "modified": "2018-08-08 23:36:03.587094",
  "name": "Approved",
  "parent": null,
  "parentfield": null,
  "parenttype": null,
  "style": "Success",
  "workflow_state_name": "Approved"
 },
 {
  "docstatus": 0,
  "doctype": "Workflow State",
  "icon": "remove",
  "modified": "2018-08-08 23:36:03.594864",
  "name": "Rejected",
  "parent": null,
  "parentfield": null,
  "parenttype": null,
  "style": "Danger",
  "workflow_state_name": "Rejected"
 }
]